{ charmander: 
  "ps":39,
  "ataque":52,
  "defensa":43,
  "ataqueEspecial":60,
  "defensaEspecial":50,
  "velocidad":65
}
{ pikachu:
  "ps":20,
  "ataque":60,
  "defensa":60,
  "ataqueEspecial":70,
  "defensaEspecial":70,
  "velocidad":40

}
{  squirtle:
  "ps":20,
  "ataque":40,
  "defensa":50,
  "ataqueEspecial":60,
  "defensaEspecial":55,
  "velocidad":40

}